…
The custom function takes the quantile results and packages them into a
data frame with named columns. This gives us the same layout as our
earlier approach with separate `min()`, `median()`, and `max()` calls.

### 5. Group Data Before Summarizing

The `group_by()` function creates groups within your data, allowing you
to compute summaries for each group separately.

``` r
# Create grouped data
murders %>% group_by(region)
```

    # A tibble: 51 × 6
    # Groups:   region [4]
       state                abb   region    population total  rate
       <chr>                <chr> <fct>          <dbl> <dbl> <dbl>
     1 Alabama              AL    South        4779736   135  2.82
     2 Alaska               AK    West          710231    19  2.68
     3 Arizona              AZ    West         6392017   232  3.63
     4 Arkansas             AR    South        2915918    93  3.19
     5 California           CA    West        37253956  1257  3.37
     6 Colorado             CO    West         5029196    65  1.29
     7 Connecticut          CT    Northeast    3574097    97  2.71
     8 Delaware             DE    South         897934    38  4.23
     9 District of Columbia DC    South         601723    99 16.5 
    10 Florida              FL    South       19687653   669  3.40
    # ℹ 41 more rows
…
