…
### 3. Tibbles as Modern Data Frames

requires the tidyverse/dplyr package.

``` r
# Group data and see what type of object is returned
grouped_murders <- murders |> group_by(region)
print(grouped_murders)
```

    # A tibble: 51 × 5
    # Groups:   region [4]
       state                abb   region    population total
       <chr>                <chr> <fct>          <dbl> <dbl>
     1 Alabama              AL    South        4779736   135
     2 Alaska               AK    West          710231    19
     3 Arizona              AZ    West         6392017   232
     4 Arkansas             AR    South        2915918    93
     5 California           CA    West        37253956  1257
     6 Colorado             CO    West         5029196    65
     7 Connecticut          CT    Northeast    3574097    97
     8 Delaware             DE    South         897934    38
     9 District of Columbia DC    South         601723    99
    10 Florida              FL    South       19687653   669
    # ℹ 41 more rows
…
