…
``` r
# List all sheets in an Excel file
excel_sheets(bigfive_path)
```

    [1] "Sheet1" "Sheet2" "Sheet3"

``` r
# Read excel file into R
bigfive_raw<- read_excel(bigfive_path)
bigfive_raw
```

    # A tibble: 104 × 6
       label     `INTEGRATED ALGEBRA` `GLOBAL HISTORY` `LIVING ENVIRONMENT` ENGLISH
       <chr>                    <dbl>            <dbl>                <dbl>   <dbl>
     1 test_year                 2010             2010                 2010    2010
     2 Scores                  131024           113804               104201  103886
     3 0                           56               55                   66     165
     4 1                           NA                8                    3      69
     5 2                            1                9                    2     237
     6 3                           NA                3                    1     190
     7 4                            3               15                    1     109
     8 5                            2               11                   10     122
     9 6                            4               29                    3     151
    10 7                            1               37                    2     175
    # ℹ 94 more rows
    # ℹ 1 more variable: `U.S. HISTORY` <dbl>
…
