…
### 3. Reading CSV Files with readr

Read CSV files using tidyverse functions.

``` r
# Read CSV file using readr (preferred tidyverse method)
murders_data <- read_csv(murders_path)

# Display basic information about the dataset
print(murders_data)
```

    # A tibble: 51 × 5
       state                abb   region    population total
       <chr>                <chr> <chr>          <dbl> <dbl>
     1 Alabama              AL    South        4779736   135
     2 Alaska               AK    West          710231    19
     3 Arizona              AZ    West         6392017   232
     4 Arkansas             AR    South        2915918    93
     5 California           CA    West        37253956  1257
     6 Colorado             CO    West         5029196    65
     7 Connecticut          CT    Northeast    3574097    97
     8 Delaware             DE    South         897934    38
     9 District of Columbia DC    South         601723    99
    10 Florida              FL    South       19687653   669
    # ℹ 41 more rows
…
``` r
bigfive_sheetnames <- excel_sheets(bigfive_path)
print(bigfive_sheetnames)
```

    [1] "Sheet1" "Sheet2" "Sheet3"

``` r
bigfive_sheet1 <- read_excel(bigfive_path, sheet = "Sheet1")
bigfive_sheet1
```

    # A tibble: 104 × 6
       label     `INTEGRATED ALGEBRA` `GLOBAL HISTORY` `LIVING ENVIRONMENT` ENGLISH
       <chr>                    <dbl>            <dbl>                <dbl>   <dbl>
     1 test_year                 2010             2010                 2010    2010
     2 Scores                  131024           113804               104201  103886
     3 0                           56               55                   66     165
     4 1                           NA                8                    3      69
     5 2                            1                9                    2     237
     6 3                           NA                3                    1     190
     7 4                            3               15                    1     109
     8 5                            2               11                   10     122
     9 6                            4               29                    3     151
    10 7                            1               37                    2     175
    # ℹ 94 more rows
    # ℹ 1 more variable: `U.S. HISTORY` <dbl>
…
    # A tibble: 0 × 0

``` r
bigfive_sheet3 <- read_excel(bigfive_path, sheet = 3)
bigfive_sheet3
```

    # A tibble: 0 × 0

``` r
bigfive_data <- read_excel(bigfive_path)
bigfive_data
```

    # A tibble: 104 × 6
       label     `INTEGRATED ALGEBRA` `GLOBAL HISTORY` `LIVING ENVIRONMENT` ENGLISH
       <chr>                    <dbl>            <dbl>                <dbl>   <dbl>
     1 test_year                 2010             2010                 2010    2010
     2 Scores                  131024           113804               104201  103886
     3 0                           56               55                   66     165
     4 1                           NA                8                    3      69
     5 2                            1                9                    2     237
     6 3                           NA                3                    1     190
     7 4                            3               15                    1     109
     8 5                            2               11                   10     122
     9 6                            4               29                    3     151
    10 7                            1               37                    2     175
    # ℹ 94 more rows
    # ℹ 1 more variable: `U.S. HISTORY` <dbl>
…
